{
    "ids_path":"/home/vsydorskyi/datasets/deloittehack/bert-base-uncased_trainpp_middle_tokens_id.pt",
    "mask_path":"/home/vsydorskyi/datasets/deloittehack/bert-base-uncased_trainpp_middle_atten_mask.pt",
    "segment_path":"/home/vsydorskyi/datasets/deloittehack/bert-base-uncased_trainpp_middle_segment_id.pt",
    "train_df_path":"",
    "target_path":"/home/vsydorskyi/datasets/deloittehack/pp_train_target.pt",
    "cv_train_idx_path":"/home/vsydorskyi/datasets/deloittehack/exploded_train_cv_indices.npy",
    "cv_test_idx_path":"/home/vsydorskyi/datasets/deloittehack/exploded_test_cv_indices.npy",
    "checkpoint_path":"",
    "device":"cuda",
    "batch_size":8,
    "early_stop_rounds":7,
    "dropout_rate":0.3,
    "learning_rate_base":1e-5,
    "learning_rate_clf":5e-3,
    "warmup":200,
    "patience":3,
    "min_lr":1e-8,
    "factor":0.5,
    "telegram_config":{
        "token": "1064592817:AAEnawbOSAQsIwRA9Z6_-AwWcmyH5WIL5Ss",
        "telegram_id": 392674050
    },
    "use_tg_logging":false,
    "scalar_freq_logging":10,
    "fold_number":[0,1,2,3,4],
    "n_epochs":8,
    "stat_to_monitor":"metric",
    "bert_model_to_use":"bert-base-uncased",
    "two_gpus":false,
    "grad_acumulation":1,
    "num_labels":3
}
